[
    {
        "name": "FUKI Fasilkom UI",
        "year": 2018
    },
   {
     "name": "RISTEK Fasilkom UI",
     "year": 2018
   },
   {
     "name": "DPM Fasilkom UI",
     "year": 2018
   },
   {
     "name": "Compfest X",
     "year": 2018
   }
]
